{
  "start-scene": "8aebd497-9fb2-47a7-9202-a2ea211e2a3e",
  "group-list": [
    "default"
  ],
  "collision-matrix": [
    [
      true
    ]
  ],
  "excluded-modules": [
    "3D Physics/Builtin"
  ],
  "preview-port": 7456,
  "design-resolution-width": 1200,
  "design-resolution-height": 675,
  "fit-width": false,
  "fit-height": true,
  "use-project-simulator-setting": false,
  "simulator-orientation": false,
  "use-customize-simulator": true,
  "simulator-resolution": {
    "width": 960,
    "height": 640
  },
  "clear-simulator-cache": true,
  "facebook": {
    "enable": false,
    "appID": "",
    "live": {
      "enable": false
    },
    "audience": {
      "enable": false
    }
  },
  "last-module-event-record-time": 1720021475309
}
